## New names:
## Rows: 20172 Columns: 61
## ── Column specification
## ──────────────────────────────────────────────────────── Delimiter: "\t" chr
## (1): ...1 dbl (60): GSM330151.CEL, GSM330153.CEL, GSM330154.CEL, GSM330157.CEL,
## GSM330...
## ℹ Use `spec()` to retrieve the full column specification for this data. ℹ
## Specify the column types or set `show_col_types = FALSE` to quiet this message.
## • `` -> `...1`

## # A tibble: 20,172 × 61
##    ...1    GSM330151.CEL GSM330153.CEL GSM330154.CEL GSM330157.CEL GSM330171.CEL
##    <chr>           <dbl>         <dbl>         <dbl>         <dbl>         <dbl>
##  1 ENSG00…          3.39          3.69          3.36          3.46          3.60
##  2 ENSG00…          3.54          3.84          3.25          3.06          3.31
##  3 ENSG00…          9.82          7.97          9.46          9.59          9.86
##  4 ENSG00…          4.75          4.87          4.98          5.98          5.78
##  5 ENSG00…          3.31          4.05          5.53          4.62          3.35
##  6 ENSG00…          8.23          7.95          6.41          6.88          7.20
##  7 ENSG00…          3.91          4.10          3.75          3.45          4.03
##  8 ENSG00…          4.26          4.66          4.83          6.27          4.39
##  9 ENSG00…          6.42          4.92          6.53          6.89          6.54
## 10 ENSG00…          6.30          6.36          7.80          5.74          5.29
## # ℹ 20,162 more rows
## # ℹ 55 more variables: GSM330174.CEL <dbl>, GSM330178.CEL <dbl>,
## #   GSM330182.CEL <dbl>, GSM330185.CEL <dbl>, GSM330186.CEL <dbl>,
## #   GSM330195.CEL <dbl>, GSM330201.CEL <dbl>, GSM330532.CEL <dbl>,
## #   GSM330546.CEL <dbl>, GSM330559.CEL <dbl>, GSM330566.CEL <dbl>,
## #   GSM330571.CEL <dbl>, GSM330574.CEL <dbl>, GSM330580.CEL <dbl>,
## #   GSM330584.CEL <dbl>, GSM330593.CEL <dbl>, GSM330603.CEL <dbl>, …
