## New names:
## Rows: 20172 Columns: 61
## ── Column specification
## ────────────────────────────────────────────────────────────────────────────────── Delimiter: "\t" chr
## (1): ...1 dbl (60): GSM330151.CEL, GSM330153.CEL, GSM330154.CEL, GSM330157.CEL, GSM330171.CEL,
## GSM330174.CEL, GS...
## ℹ Use `spec()` to retrieve the full column specification for this data. ℹ Specify the column types or set
## `show_col_types = FALSE` to quiet this message.
## • `` -> `...1`

## # A tibble: 20,172 × 61
##    ...1  GSM330151.CEL GSM330153.CEL GSM330154.CEL GSM330157.CEL GSM330171.CEL GSM330174.CEL GSM330178.CEL
##    <chr>         <dbl>         <dbl>         <dbl>         <dbl>         <dbl>         <dbl>         <dbl>
##  1 ENSG…          3.39          3.69          3.36          3.46          3.60          3.27          3.63
##  2 ENSG…          3.54          3.84          3.25          3.06          3.31          2.90          3.38
##  3 ENSG…          9.82          7.97          9.46          9.59          9.86          9.36          8.46
##  4 ENSG…          4.75          4.87          4.98          5.98          5.78          6.25          5.41
##  5 ENSG…          3.31          4.05          5.53          4.62          3.35          4.39          5.33
##  6 ENSG…          8.23          7.95          6.41          6.88          7.20          5.98          8.77
##  7 ENSG…          3.91          4.10          3.75          3.45          4.03          3.36          3.96
##  8 ENSG…          4.26          4.66          4.83          6.27          4.39          3.83          6.88
##  9 ENSG…          6.42          4.92          6.53          6.89          6.54          6.92          6.20
## 10 ENSG…          6.30          6.36          7.80          5.74          5.29          5.89          6.41
## # ℹ 20,162 more rows
## # ℹ 53 more variables: GSM330182.CEL <dbl>, GSM330185.CEL <dbl>, GSM330186.CEL <dbl>,
## #   GSM330195.CEL <dbl>, GSM330201.CEL <dbl>, GSM330532.CEL <dbl>, GSM330546.CEL <dbl>,
## #   GSM330559.CEL <dbl>, GSM330566.CEL <dbl>, GSM330571.CEL <dbl>, GSM330574.CEL <dbl>,
## #   GSM330580.CEL <dbl>, GSM330584.CEL <dbl>, GSM330593.CEL <dbl>, GSM330603.CEL <dbl>,
## #   GSM330611.CEL <dbl>, GSM330612.CEL <dbl>, GSM330933.CEL <dbl>, GSM330934.CEL <dbl>,
## #   GSM330969.CEL <dbl>, GSM330979.CEL <dbl>, GSM330980.CEL <dbl>, GSM330982.CEL <dbl>, …
